*** Darwin 27x17 ***
Turn = 0.
  01234567890123456
0 .................
1 .................
2 .................
3 .................
4 .................
5 .................
6 .................
7 .................
8 .................
9 .................
0 .................
1 .................
2 .................
3 .................
4 .................
5 .................
6 .................
7 .................
8 .................
9 .................
0 .................
1 .......f.........
2 .................
3 .................
4 .................
5 .................
6 .................

Turn = 27.
  01234567890123456
0 .................
1 .................
2 .................
3 .................
4 .................
5 .................
6 .................
7 .................
8 .................
9 .................
0 .................
1 .................
2 .................
3 .................
4 .................
5 .................
6 .................
7 .................
8 .................
9 .................
0 .................
1 .......f.........
2 .................
3 .................
4 .................
5 .................
6 .................

*** Darwin 13x37 ***
Turn = 0.
  0123456789012345678901234567890123456
0 .....t.......................h....h..
1 ................h....................
2 r....................................
3 .....................................
4 .....................................
5 .........r............t..............
6 .................tf.......f..........
7 .....................................
8 ....................................t
9 .....................................
0 .t...................................
1 .......r.............................
2 .....................................

Turn = 14.
  0123456789012345678901234567890123456
0 .....t.......................hh......
1 .....t...............................
2 .....................................
3 .....................................
4 .....................................
5 ......................t..............
6 .................tt.......f..........
7 .....................................
8 r...................................t
9 r....................................
0 .t...................................
1 .....................................
2 ...r.................................

Turn = 28.
  0123456789012345678901234567890123456
0 ...r.t.......................hh......
1 .....t...............................
2 .....................................
3 .....................................
4 .....................................
5 ......................t..............
6 .................tt.......f..........
7 .....................................
8 ..............r.....................t
9 .....................................
0 .t...................................
1 .....................................
2 .................r...................

Turn = 42.
  0123456789012345678901234567890123456
0 .....t............r..........hh......
1 .....t...............................
2 .....................................
3 .....................................
4 .....................................
5 ......................t..............
6 .................tt.......f..........
7 .....................................
8 ............................r.......t
9 .....................................
0 .t...................................
1 .....................................
2 ...............................r.....

Turn = 56.
  0123456789012345678901234567890123456
0 .....t.....................rh........
1 .....t...............................
2 .............................r.......
3 ...................................r.
4 .....................................
5 ......................t..............
6 .................tt.......f.........r
7 .....................................
8 .....................................
9 ................................r....
0 .t...................................
1 .....................................
2 .....................................

Turn = 70.
  0123456789012345678901234567890123456
0 .....t.......rh......................
1 .....t........................r......
2 .....................................
3 .....................................
4 ....................................r
5 ......................t..............
6 .................tt.......f..........
7 .....................................
8 .....................................
9 ..................r..................
0 .t...................................
1 .....................................
2 ..........................r..........

Turn = 84.
  0123456789012345678901234567890123456
0 ..rh.................................
1 ...........r....r....................
2 .....................................
3 .....................................
4 .....................................
5 .....r................t..............
6 .................tt.......f..........
7 .....................................
8 ....................................r
9 ....r................................
0 .t...................................
1 .....................................
2 ............r........................

*** Darwin 43x16 ***
Turn = 0.
  0123456789012345
0 ................
1 ................
2 ................
3 ................
4 ................
5 ................
6 ................
7 ................
8 ................
9 ................
0 .......r........
1 ................
2 ................
3 ................
4 ................
5 ................
6 ................
7 ................
8 ................
9 ................
0 ................
1 ................
2 ................
3 ................
4 ................
5 ................
6 ................
7 ................
8 ................
9 ................
0 ................
1 ................
2 ................
3 ................
4 ................
5 ................
6 ................
7 ................
8 ................
9 ................
0 ................
1 ................
2 ................

Turn = 1.
  0123456789012345
0 ................
1 ................
2 ................
3 ................
4 ................
5 ................
6 ................
7 ................
8 ................
9 ................
0 ........r.......
1 ................
2 ................
3 ................
4 ................
5 ................
6 ................
7 ................
8 ................
9 ................
0 ................
1 ................
2 ................
3 ................
4 ................
5 ................
6 ................
7 ................
8 ................
9 ................
0 ................
1 ................
2 ................
3 ................
4 ................
5 ................
6 ................
7 ................
8 ................
9 ................
0 ................
1 ................
2 ................

Turn = 2.
  0123456789012345
0 ................
1 ................
2 ................
3 ................
4 ................
5 ................
6 ................
7 ................
8 ................
9 ................
0 .........r......
1 ................
2 ................
3 ................
4 ................
5 ................
6 ................
7 ................
8 ................
9 ................
0 ................
1 ................
2 ................
3 ................
4 ................
5 ................
6 ................
7 ................
8 ................
9 ................
0 ................
1 ................
2 ................
3 ................
4 ................
5 ................
6 ................
7 ................
8 ................
9 ................
0 ................
1 ................
2 ................

Turn = 3.
  0123456789012345
0 ................
1 ................
2 ................
3 ................
4 ................
5 ................
6 ................
7 ................
8 ................
9 ................
0 ..........r.....
1 ................
2 ................
3 ................
4 ................
5 ................
6 ................
7 ................
8 ................
9 ................
0 ................
1 ................
2 ................
3 ................
4 ................
5 ................
6 ................
7 ................
8 ................
9 ................
0 ................
1 ................
2 ................
3 ................
4 ................
5 ................
6 ................
7 ................
8 ................
9 ................
0 ................
1 ................
2 ................

Turn = 4.
  0123456789012345
0 ................
1 ................
2 ................
3 ................
4 ................
5 ................
6 ................
7 ................
8 ................
9 ................
0 ...........r....
1 ................
2 ................
3 ................
4 ................
5 ................
6 ................
7 ................
8 ................
9 ................
0 ................
1 ................
2 ................
3 ................
4 ................
5 ................
6 ................
7 ................
8 ................
9 ................
0 ................
1 ................
2 ................
3 ................
4 ................
5 ................
6 ................
7 ................
8 ................
9 ................
0 ................
1 ................
2 ................

*** Darwin 8x25 ***
Turn = 0.
  0123456789012345678901234
0 .......t.....f......f....
1 .f..f.f..................
2 ................f........
3 ...t........h............
4 ............r....h.....f.
5 ..t.f.....t.....r........
6 .h...................t...
7 ..r.........t............

Turn = 6.
  0123456789012345678901234
0 .......t....r.r.....f....
1 .f..f.f....r.............
2 ..r.............f........
3 ...t.....................
4 r......................f.
5 ....f.....rr.............
6 h....................t...
7 ............t....h.......

Turn = 12.
  0123456789012345678901234
0 r....r.t...r......rr.r...
1 .f..fr.t.................
2 ................f........
3 ...t.....................
4 .......................f.
5 ....f....................
6 h....................t...
7 ...........rr....h.......

*** Darwin 37x39 ***
Turn = 0.
  012345678901234567890123456789012345678
0 .......................................
1 .........................r...h.........
2 .......................................
3 .......................................
4 ........h..........................f...
5 ..............f.r..............r.......
6 ....h..r...............................
7 ..........h................r...........
8 .......................................
9 r....h....................t............
0 .....f.................................
1 ........h..............................
2 .......................................
3 ............h..........................
4 .............r.......................f.
5 .......................h...............
6 .......t...............................
7 .......................................
8 ................................h....t.
9 ...h...................................
0 .f.....................................
1 ..............................t........
2 .......................................
3 ........r............f.................
4 ......t................................
5 ..................................h...t
6 ......................t................
7 .......................................
8 ...........fh..........................
9 .r.t...................................
0 ....................................t..
1 .......................................
2 ..f....................................
3 f.f..............r.....................
4 ............................t.......h..
5 ....................r..................
6 .......................................

Turn = 65.
  012345678901234567890123456789012345678
0 .....................................r.
1 .......................................
2 .......................................
3 .......................................
4 .......................................
5 .........................r.............
6 .......................................
7 .....................................r.
8 ......................................r
9 ....................r..........r.....r.
0 .....f...............r..r.............r
1 r.....................................r
2 .....................................r.
3 ...............................r.......
4 ..r............................r.......
5 ..r....................................
6 .r.....................................
7 .r.....................................
8 ....................................t..
9 .......................................
0 .........rr.h..........................
1 ............h.................t......r.
2 .......................................
3 r....................f...............r.
4 ......tt...............................
5 .......................................
6 ......................tt...............
7 ......................................r
8 ...t.......f...........................
9 ...t..................................r
0 ...................................rr..
1 ....................................r..
2 .......................................
3 ............................t..........
4 ............................t..........
5 .......................................
6 .......................................

*** Darwin 17x12 ***
Turn = 0.
  012345678901
0 ...r........
1 t...r..h....
2 ............
3 ............
4 ...h........
5 ............
6 .......tt...
7 ..r.........
8 ........t...
9 h.h.........
0 ............
1 ......h.....
2 ............
3 ...f...h....
4 ............
5 ......r.....
6 .t..........

Turn = 88.
  012345678901
0 rr..........
1 ........r...
2 ............
3 ...........r
4 ............
5 ........tt..
6 .......tt...
7 ........t...
8 ........t...
9 ......r.t...
0 ........r...
1 .........r..
2 ..........r.
3 ............
4 ............
5 r...........
6 ............

*** Darwin 11x27 ***
Turn = 0.
  012345678901234567890123456
0 .....h.t.........r.t.......
1 r........r.h.........t....t
2 ...............h...ftf...t.
3 ...hr.....................h
4 rr.h.t....f..........r.....
5 ....hr...t..tt.............
6 ...r.....f...............hr
7 ...f....h....f..h..f.t...hr
8 ....h.....f..........h.....
9 ........f.r...f............
0 ...............h..t.....t..

Turn = 33.
  012345678901234567890123456
0 rr.r.......r.............rr
1 ............r..r.....t....r
2 ...................r.t...tt
3 .....................t....t
4 .........trr...............
5 ........tttt...r...r.......
6 .........ttt...............
7 ...f.....r.........tttt....
8 ..........r...........t..r.
9 r........r.r..r.rr.......t.
0 .........r.r........r...tt.

Turn = 66.
  012345678901234567890123456
0 ...rrr.r.r...........r...r.
1 ....rr...........r.......r.
2 .....r..............r......
3 ..........r.........r......
4 .........rtt.....r.........
5 ..r.....rttt....r..........
6 ......r..rtt...............
7 .......r....r..rr.....t....
8 .........r............ttt..
9 ......................tt..r
0 r.....rrrr..rr.........t...

*** Darwin 15x18 ***
Turn = 0.
  012345678901234567
0 ......r...t.....h.
1 ..................
2 hh...t............
3 .......f.h..h.....
4 ......h...........
5 .r................
6 ...ht......h......
7 ..................
8 .......h.....r.tr.
9 .................f
0 .h......r.........
1 ...t....r.....h...
2 .......f..r..f..h.
3 ..................
4 ..f....f...f...t..

Turn = 48.
  012345678901234567
0 ..r..r..ttttt....r
1 ........tt.tt....r
2 r..........tt.....
3 ..................
4 ...........r......
5 ....t.............
6 r..tt.............
7 ...........r......
8 r.................
9 ............rr....
0 ..................
1 ...t..............
2 ..tt.........f....
3 .............r....
4 r........r........

*** Darwin 48x39 ***
Turn = 0.
  012345678901234567890123456789012345678
0 .......................................
1 ......f......................r.........
2 .......................................
3 ....................h..................
4 ................................t....t.
5 ...........f...........................
6 .......................................
7 ...............................h.......
8 .......................................
9 ........hf.........f...................
0 .......................................
1 .......................................
2 .............................t.........
3 .......................................
4 ....h..................................
5 .........................r.............
6 .......................................
7 .........f..........t..................
8 .......................................
9 ...............r...................t...
0 ..............t........................
1 .....................t..............h..
2 .......................................
3 .......................................
4 .......................................
5 .............................f.........
6 .....t....rh..f........................
7 ........h...h..h..............h........
8 .......................................
9 ....................r.......f..........
0 .......................................
1 .......................................
2 .......r...............t....r..r.......
3 .......................................
4 .......................................
5 ...................f...................
6 ................f......................
7 .......t......t........................
8 ...t...................................
9 .......................................
0 .......................................
1 .......................................
2 .......................................
3 ...f...................................
4 ..................h...r................
5 .........t.....hr......................
6 .......................................
7 ..........................h..t.........

Turn = 20.
  012345678901234567890123456789012345678
0 ........h......................h.......
1 ......f................................
2 .......................................
3 ......................................h
4 ................................t....t.
5 ...........f...........................
6 .......................................
7 .......................................
8 ......................................r
9 .........f.........f...................
0 .......................................
1 .......................................
2 .....r.......................t.........
3 .......................................
4 h......................................
5 .......................................
6 .......................................
7 .........f..........t..................
8 .......................................
9 ..............t....................t...
0 ..............t........................
1 .....................t.................
2 .......................................
3 .......................................
4 .......................................
5 .............................f.........
6 h.............f........................
7 ....................rr....h........h..h
8 .......................................
9 r...........................f..........
0 .......................................
1 .......................................
2 .......................................
3 ................r......................
4 .......................................
5 ...................f.....r.............
6 ....................r..................
7 .......t......t........................
8 ...t...................................
9 .......................................
0 ......r................................
1 ....................................h..
2 .......................................
3 ...f...................rr..............
4 .......................................
5 .........t.............................
6 ...........r...........................
7 r.......h...r...............tt.........

Turn = 40.
  012345678901234567890123456789012345678
0 ...............................h.......
1 ......f................................
2 .......................................
3 .......rr.............................h
4 ................................t....t.
5 ...........f...........................
6 .......................................
7 ....................r.....h............
8 ....................rr.................
9 .........f.........f...................
0 .......................................
1 .......................................
2 .............................t.........
3 ................r......................
4 r......................................
5 r......................................
6 .......................................
7 .........f.............................
8 .......................................
9 ..............t....................t...
0 ..............t........................
1 .......r...............................
2 .......................................
3 .......................................
4 .......................................
5 .............................f.........
6 .............r........................r
7 ..............r......................hr
8 r......................................
9 ............................f..........
0 .......................................
1 .......................................
2 .......................................
3 .......................................
4 .......................................
5 ...................f..................r
6 .......................................
7 .......t......t........................
8 ...t...................................
9 ....................r..................
0 .............................r.........
1 ...........................r...........
2 .......................................
3 ...f...................................
4 r......................................
5 .........t.............................
6 .......................................
7 ........h....rr...............r..r..h..

Turn = 60.
  012345678901234567890123456789012345678
0 r....r....r...............h....h.......
1 ......f.r..............................
2 ........r..............................
3 ......................................h
4 ................................t....t.
5 ...........f...........................
6 .......................................
7 .......................................
8 .......................................
9 .........f.........f..................r
0 .......................................
1 ....................r..................
2 .............................t.........
3 .......................................
4 .......................................
5 ......................................r
6 .......................................
7 .........f.............................
8 .......................................
9 ..............t.....r..............t...
0 ..............t...........r..r.........
1 .............................r.........
2 .............r.........................
3 .......rr..............................
4 .......................................
5 .......................................
6 ......................r................
7 ....................r.r................
8 ..r....................................
9 ............................f..........
0 .......................................
1 ...................................rr..
2 r.........r............................
3 .......................................
4 ........r..............................
5 ...................f...................
6 .......................................
7 .......t...............................
8 ...t..................................r
9 .......................................
0 .......................................
1 .......................................
2 .......................................
3 ...f...................................
4 .......................................
5 r......................................
6 ..............r........................
7 r.............r........................

Turn = 80.
  012345678901234567890123456789012345678
0 ........r........r.....r..r....h.......
1 ..........................r............
2 .......................................
3 ......................................t
4 ................................t....tt
5 ...........f..........................t
6 .......................................
7 .......................................
8 .......................................
9 .........f.........f...................
0 .......................................
1 ....................................r..
2 ..........r..................t.........
3 .............................t.........
4 .............................t.........
5 ......r............................r...
6 ....r..r...............................
7 ........rf.............................
8 ......................................r
9 ..............t....................t...
0 ..............t....................t...
1 .......................................
2 .................................r.....
3 r......................................
4 .......................................
5 .......................................
6 ..r....................................
7 r.r....................................
8 .......................................
9 ......................r.....f..........
0 .......................................
1 .......................................
2 .......................................
3 .......................................
4 .......................................
5 ...................f...................
6 .......r...............................
7 .....r.r...............................
8 ...t...................................
9 .......................................
0 .......................................
1 .......................................
2 .......................................
3 ...f..r................................
4 ..r....................................
5 .......................................
6 .......................................
7 r................r................r....

*** Darwin 50x15 ***
Turn = 0.
  012345678901234
0 ........f..f...
1 .......f.......
2 ..r............
3 h............f.
4 ...............
5 ...r.........h.
6 ...............
7 .........ff....
8 ..ff...........
9 ...............
0 ...............
1 ............r..
2 ......f........
3 .h....f........
4 ...........t...
5 ..f............
6 ...............
7 ...............
8 ...............
9 h..............
0 .r.............
1 ...............
2 ........r......
3 ....hh...f....t
4 ...........f..t
5 ....f.t..f..r..
6 ............r..
7 .............t.
8 .............t.
9 ...............
0 ...............
1 ...............
2 ....t..........
3 ...............
4 ...............
5 r..........h...
6 ........r......
7 f..............
8 .........r.....
9 ...............
0 ...............
1 ..h............
2 .......h.......
3 .......h...h...
4 .........r.....
5 ...............
6 ...............
7 ..............r
8 .......r.......
9 ...............

Turn = 28.
  012345678901234
0 rr.r...........
1 .......f.......
2 r..............
3 .............f.
4 ....r.r........
5 ...............
6 ...............
7 ...............
8 r.ff...........
9 ...............
0 ..........r....
1 ...............
2 ......r.r......
3 ......f...r....
4 ...........t...
5 ..f............
6 ...............
7 ...............
8 r..............
9 ..............r
0 ...............
1 ...............
2 .........r.....
3 ........r.....t
4 ....h......f..t
5 ....f.t..f....t
6 ........r....t.
7 .............t.
8 .............tt
9 ...............
0 ...............
1 ...............
2 ....t..........
3 ...............
4 ...............
5 ...............
6 ....r.......r..
7 fr........r....
8 ...............
9 ...............
0 r..r...........
1 ...............
2 ...............
3 ...............
4 ...............
5 ...............
6 ...............
7 ...............
8 ...............
9 .rr..r..r......

Turn = 56.
  012345678901234
0 ........rr.....
1 .......f.......
2 ...............
3 .............f.
4 ...............
5 ...............
6 r..............
7 ...............
8 ..............r
9 ...............
0 ...............
1 ..............r
2 r.......r......
3 .......r.......
4 ...........tt..
5 ..f............
6 r.............r
7 ...............
8 ..............r
9 ..r............
0 ..r............
1 rr.............
2 rr.............
3 ..r...t........
4 ......tt...f...
5 ...r.........t.
6 ......r......t.
7 .............tt
8 r............tt
9 ...............
0 .............r.
1 r....r.........
2 r...h.........r
3 .r.............
4 ...............
5 ...............
6 ...............
7 ..............r
8 .......r.......
9 ...............
0 ...............
1 ...............
2 ...............
3 ...............
4 ...............
5 r..............
6 ...............
7 ...............
8 ...............
9 ............r..

*** Darwin 49x33 ***
Turn = 0.
  012345678901234567890123456789012
0 ..........r...t.r................
1 .................................
2 .....f.f....t....................
3 .................................
4 .................................
5 .................................
6 .................................
7 .................................
8 .....r...........................
9 .......f.........r...............
0 ...................f.............
1 .................................
2 .............h...................
3 ...f...............t............t
4 .................................
5 ..........t......................
6 ...................f.....h.......
7 ..........................t......
8 .................................
9 .................................
0 .................................
1 ......r..........................
2 .................................
3 ......................f..........
4 ........h........................
5 .................................
6 .................................
7 .................................
8 .................................
9 .............................h...
0 ..............................f..
1 ..h..........t.......r...........
2 .............h...................
3 .................................
4 .................................
5 .................................
6 .f...............................
7 .....h...........................
8 .................................
9 .......................f.........
0 .................................
1 .................................
2 ............................h....
3 ...........r.....................
4 .............................f...
5 ........t........................
6 .r...f...........t...............
7 ..hf.............................
8 ......h.....r....................

Turn = 53.
  012345678901234567890123456789012
0 ..r..............................
1 .................................
2 .....f...........................
3 .................................
4 ................................r
5 .................................
6 ............rr...................
7 .................................
8 .................................
9 ..........r......................
0 r..................f.............
1 .................................
2 ...................t.............
3 ...f...............t............r
4 .................................
5 ..........t......................
6 ...................fh...........r
7 ..........................t......
8 .................................
9 .................................
0 ...........r.....................
1 ............r....................
2 ......r..........................
3 .................................
4 .................................
5 .................................
6 .................................
7 .................................
8 ................................r
9 ............................r...r
0 .......r......................f..
1 h.......r....t...................
2 r................................
3 r................................
4 .r...............................
5 .................................
6 .f...............................
7 .................................
8 .................................
9 .......................f.........
0 .................................
1 .................................
2 .................................
3 .................................
4 .................................
5 .....h..t......r.................
6 .....f...........t...............
7 ...f..........................r..
8 .............................r...

*** Darwin 4x41 ***
Turn = 0.
  01234567890123456789012345678901234567890
0 t.f....rf....r.....f...th..............r.
1 ........r.....r.......ht......t....r....f
2 ....f.t....f........r.ff.f.trtf..hh......
3 .....t.........f....f......t.r......r.f..

Turn = 15.
  01234567890123456789012345678901234567890
0 ..r................r...t........r.....r.r
1 .......h..............tt......tt......r.f
2 r...f.ttr......r.......ttt..ttt..........
3 r....t.rr......r....f.r......tt....r..r..

Turn = 30.
  01234567890123456789012345678901234567890
0 .r...........rr.......ttr..........r.r..r
1 .......................t......ttt....r...
2 ....t.ttr..............ttt..ttt..r......r
3 r...tt.rrr....r.......r......tt..........

