*** Darwin 8x8 ***
Turn = 0.
  01234567
0 f.......
1 ........
2 ........
3 ...hh...
4 ...hh...
5 ........
6 ........
7 .......f

Turn = 1.
  01234567
0 f.......
1 ........
2 ...h....
3 .....h..
4 ..h.....
5 ....h...
6 ........
7 .......f

Turn = 2.
  01234567
0 f.......
1 ...h....
2 ........
3 ......h.
4 .h......
5 ........
6 ....h...
7 .......f

Turn = 3.
  01234567
0 f..h....
1 ........
2 ........
3 .......h
4 h.......
5 ........
6 ........
7 ....h..f

Turn = 4.
  01234567
0 f..h....
1 ........
2 ........
3 .......h
4 h.......
5 ........
6 ........
7 ....h..f

Turn = 5.
  01234567
0 f..h....
1 ........
2 ........
3 .......h
4 h.......
5 ........
6 ........
7 ....h..f

*** Darwin 7x9 ***
Turn = 0.
  012345678
0 t........
1 .........
2 .........
3 ..h......
4 .........
5 ....r....
6 ........t

Turn = 1.
  012345678
0 t........
1 .........
2 .........
3 ...h.....
4 ....r....
5 .........
6 ........t

Turn = 2.
  012345678
0 t........
1 .........
2 .........
3 ....r....
4 ....r....
5 .........
6 ........t

Turn = 3.
  012345678
0 t........
1 .........
2 .........
3 ....rr...
4 .........
5 .........
6 ........t

Turn = 4.
  012345678
0 t........
1 .........
2 ....r....
3 ......r..
4 .........
5 .........
6 ........t

Turn = 5.
  012345678
0 t........
1 ....r....
2 .........
3 .......r.
4 .........
5 .........
6 ........t

*** Darwin 7x9 ***
Turn = 0.
  012345678
0 h........
1 .........
2 .........
3 ..h......
4 .........
5 ....r....
6 ........t

Turn = 4.
  012345678
0 .........
1 .........
2 ....r....
3 ......r..
4 h........
5 .........
6 ........t

*** Darwin 5x5 ***
Turn = 0.
  01234
0 tf...
1 .t...
2 ..f.t
3 .rhr.
4 ..r.t

Turn = 2.
  01234
0 tt...
1 .t.r.
2 ..f.t
3 .rr..
4 .r..t

Turn = 4.
  01234
0 tt.r.
1 .t...
2 ..r.t
3 r.r..
4 r...t

*** Darwin 7x10 ***
Turn = 0.
  0123456789
0 ...r.f....
1 ...r.....t
2 ...t..f...
3 ........r.
4 ft.r.f....
5 .......f..
6 ....r.t...

Turn = 2.
  0123456789
0 ....rf....
1 ..r......t
2 ...t..f...
3 .........r
4 trr..f....
5 .......f..
6 .....rr...

Turn = 4.
  0123456789
0 ....rr....
1 r........t
2 ...t..f...
3 ..r.......
4 rr...fr...
5 .....r.f.r
6 ..........

*** Darwin 10x4 ***
Turn = 0.
  0123
0 ....
1 ....
2 ....
3 .t.r
4 t..r
5 ...t
6 ...t
7 ..h.
8 r...
9 th..

Turn = 3.
  0123
0 ...r
1 ...r
2 ....
3 .t..
4 t...
5 ...t
6 ...t
7 ...t
8 ...r
9 tt..

Turn = 6.
  0123
0 ....
1 .r.r
2 ....
3 .t..
4 t...
5 ...t
6 ...t
7 ...t
8 ....
9 tt.r

Turn = 9.
  0123
0 r...
1 ....
2 ....
3 .t..
4 t..r
5 ...t
6 ...t
7 ...t
8 ....
9 ttt.

*** Darwin 10x7 ***
Turn = 0.
  0123456
0 r......
1 tt..t..
2 .......
3 ....t..
4 r......
5 ...r...
6 rt.r...
7 r......
8 .......
9 r.....f

Turn = 7.
  0123456
0 ....t..
1 tr..t..
2 .r.....
3 r...t..
4 .......
5 ...r...
6 ......r
7 .r.....
8 .......
9 r....rr

*** Darwin 6x5 ***
Turn = 0.
  01234
0 .....
1 ...f.
2 ....h
3 .....
4 .rr..
5 f.r..

Turn = 3.
  01234
0 ....h
1 ...f.
2 .....
3 r....
4 r....
5 f...r

Turn = 6.
  01234
0 r...h
1 ...f.
2 r....
3 .....
4 .....
5 f..r.

*** Darwin 9x9 ***
Turn = 0.
  012345678
0 ..h......
1 .....f...
2 .........
3 .h.th....
4 ......t..
5 t......f.
6 ......r..
7 .........
8 f........

Turn = 4.
  012345678
0 h...h....
1 .....f...
2 .........
3 h..t.....
4 ......t..
5 t......f.
6 .........
7 .........
8 f....r...

Turn = 8.
  012345678
0 h...h....
1 .....f...
2 .........
3 h..t.....
4 ......t..
5 t......f.
6 .........
7 .........
8 fr.......

*** Darwin 7x9 ***
Turn = 0.
  012345678
0 .........
1 ....h....
2 ....h...h
3 .......t.
4 ...t.....
5 h....f...
6 ..f.r....

Turn = 3.
  012345678
0 .........
1 .......h.
2 hh...h...
3 ....r..t.
4 ...t.....
5 .....f...
6 ..f......

Turn = 6.
  012345678
0 h........
1 ....r...h
2 h.r......
3 .......t.
4 ...t.....
5 .....f...
6 ..f......

*** Darwin 1x5 ***
Turn = 0.
  01234
0 frhrf

Turn = 1.
  01234
0 frrrf

Turn = 2.
  01234
0 rrrrf

Turn = 3.
  01234
0 rrrrf

Turn = 4.
  01234
0 rrrrf

Turn = 5.
  01234
0 rrrrf

Turn = 6.
  01234
0 rrrrf
